5.955668457031249829e+01
2.245626636505127038e+01
2.174790802001952983e+01
1.872013885498046903e+01
1.540740219116210952e+01
1.529911960601806697e+01
1.326517913818359418e+01
1.292914630889892535e+01
1.225010890960693288e+01
1.150589033126831140e+01
1.160035533905029226e+01
1.085553472518920870e+01
1.048173614501953210e+01
1.033019605636596694e+01
1.003414699554443423e+01
1.037692762374877908e+01
9.526750507354735831e+00
1.131511243820190415e+01
9.802964229583739808e+00
9.446741285324096182e+00
9.269681558609008221e+00
8.947954235076904794e+00
9.335499191284180043e+00
8.963766231536865803e+00
9.298779678344725852e+00
8.831417903900145916e+00
9.883998603820801421e+00
8.985727205276489826e+00
8.601952905654906445e+00
8.566053895950316743e+00
8.459692773818970224e+00
8.570493240356444886e+00
8.338301563262939808e+00
8.558680677413940785e+00
8.375298080444336435e+00
8.507366743087768413e+00
8.235177803039551492e+00
8.219988050460814932e+00
8.587684135437012145e+00
8.232408380508422496e+00
8.555381050109863494e+00
8.108445320129394673e+00
8.110490751266478782e+00
8.227831764221191335e+00
8.094731855392456765e+00
8.145963964462280771e+00
8.005594739913940217e+00
8.046440162658690554e+00
8.303397493362426829e+00
8.034290313720703125e+00
