3.330447425842285014e+01
1.456858852005004792e+02
3.729387695312500028e+01
2.108605785369872976e+01
1.577711307525634687e+01
3.971068981170654411e+01
1.357090530395507777e+01
1.740806898117065415e+01
1.282717409133911168e+01
1.214203912734985380e+01
1.129012289047241246e+01
1.118526891708373938e+01
1.249220342636108327e+01
1.018415140151977560e+01
9.959195823669434233e+00
9.828655052185059304e+00
1.114386768341064382e+01
9.265964241027832671e+00
9.569211311340332315e+00
9.210232334136962962e+00
8.995968036651611044e+00
9.530174293518065554e+00
9.980582160949706960e+00
1.013865423202514648e+01
8.630243682861328480e+00
8.481766309738159038e+00
8.605859603881835795e+00
8.549380006790160635e+00
8.479534225463867259e+00
8.451915731430053924e+00
8.680098648071288281e+00
8.311901044845580344e+00
8.941691980361937908e+00
8.209801321029663868e+00
8.455928373336792703e+00
8.184373226165771342e+00
8.606268110275268057e+00
8.356485128402709961e+00
8.887877550125121928e+00
8.233737564086913707e+00
8.142253026962279705e+00
8.263602294921874147e+00
8.105193710327148082e+00
8.167839632034301189e+00
8.147008066177368946e+00
8.062243623733520437e+00
8.163542690277099112e+00
8.386001987457275320e+00
8.108639736175536683e+00
7.698149175643920650e+00
