9.208524406433105014e+01
2.177806222915649315e+01
1.829796270370483313e+01
1.669972182273864902e+01
1.548935605049133279e+01
1.423250540733337388e+01
1.334759036064147963e+01
1.239283009529113855e+01
1.182921534538269093e+01
1.124226210594177289e+01
1.073353785514831493e+01
1.038048161506652889e+01
1.007398228645324778e+01
9.800141439437865643e+00
9.420074615478515767e+00
9.187688169479370615e+00
9.116498169898987314e+00
8.916256508827210325e+00
8.735907325744628693e+00
8.711351766586304279e+00
8.526952691078186319e+00
8.455522627830506011e+00
8.377359018325805096e+00
8.359572834968567179e+00
8.304553742408751660e+00
8.184003901481627707e+00
8.232999014854431863e+00
8.043828573226928569e+00
8.047699441909790252e+00
8.036425166130065634e+00
7.917712416648864604e+00
7.664481239318847727e+00
7.535488619804382004e+00
7.588916430473327424e+00
7.514586796760559295e+00
7.422095909118652024e+00
7.393807468414306250e+00
7.414527812004089391e+00
7.396254663467407120e+00
7.371375217437743821e+00
7.142130455970764125e+00
7.157740650177001562e+00
7.051847667694091548e+00
7.063450002670288441e+00
7.020453596115112660e+00
7.008283386230468537e+00
6.984444699287414515e+00
6.852413072586059251e+00
6.851853914260864542e+00
6.838437256813048926e+00
