4.962406513214111214e+01
2.412465988159179631e+01
6.085938823699951428e+01
1.564010976791381857e+01
1.468063522338867166e+01
1.335900436401367131e+01
1.272561977386474652e+01
1.223290716171264592e+01
1.141911642074584954e+01
1.183167053222656229e+01
1.242143939971923849e+01
1.021304460525512781e+01
9.862390365600585795e+00
9.816547164916991974e+00
9.564432563781737784e+00
9.693540210723876172e+00
9.162682933807372976e+00
9.145396766662598154e+00
9.240084638595581268e+00
9.104296131134033132e+00
8.826704616546630078e+00
8.737280368804931641e+00
9.913557205200195455e+00
9.196600036621093821e+00
8.500942144393921041e+00
9.384620227813719850e+00
8.603657245635986328e+00
8.586133689880371733e+00
8.368709602355956179e+00
9.083718280792236754e+00
8.183439826965331676e+00
8.185842285156249787e+00
8.391460866928101225e+00
8.559925203323365039e+00
8.402018251419066885e+00
8.072576446533203054e+00
8.022093782424926545e+00
7.834265232086181641e+00
7.950088453292846857e+00
8.014217901229859109e+00
7.954687767028808310e+00
7.943849077224731658e+00
7.949404726028442170e+00
7.776055717468262074e+00
7.830662508010863831e+00
7.821527166366577077e+00
7.658668136596679332e+00
7.706666021347046147e+00
7.899096899032592489e+00
7.700495557785034251e+00
