2.448682720947265636e+02
2.864561353683471623e+01
1.840559896469116197e+01
1.669229040145874166e+01
1.545686180114746122e+01
1.447657717704773006e+01
1.354287290573120117e+01
1.274353183746337947e+01
1.216094892501831026e+01
1.136615934371948278e+01
1.089002762794494572e+01
1.048804167747497473e+01
1.013957002639770444e+01
9.825656538009644336e+00
9.517326736450195668e+00
9.296929121017456055e+00
9.118141622543335600e+00
8.991370921134949512e+00
8.818003306388854767e+00
8.589299545288085369e+00
8.265969371795653942e+00
8.238551845550537323e+00
8.139581780433655211e+00
8.050122632980347248e+00
8.055688800811767081e+00
7.992792563438415598e+00
7.865235776901244868e+00
7.838507728576660227e+00
7.830776538848876811e+00
7.816882576942443706e+00
7.754921674728393555e+00
7.598568353652954244e+00
7.493861694335937074e+00
7.427252740859985103e+00
7.465233707427978871e+00
7.382592020034789648e+00
7.384950170516967560e+00
7.358605403900146058e+00
7.225417366027832244e+00
7.215183358192444274e+00
7.261229786872863912e+00
7.211205239295959579e+00
7.122838234901427867e+00
7.081711640357971405e+00
7.110132694244384766e+00
7.160372099876403773e+00
7.085016469955444762e+00
7.074113068580627051e+00
7.135670256614685236e+00
7.014295186996459819e+00
